Olympics: Cash, Climate, and Champions
…
]

---
class: inverse, center
## Regression

.pull-center[
* Our regression function of how the average GDP of a country will affect its gold medal chances are as follows,
* `\(\hat{Gold_i} = 7.8 + 0.0000000537	* {AvgGDP_i} + 0.0112 * NumAthletes - 0.0112 * AvgTemp\)` 
* Our R^2 value was 1 !
]

```
## # A tibble: 26 × 5
##    term                   estimate std.error statistic p.value
##    <chr>                     <dbl>     <dbl>     <dbl>   <dbl>
##  1 (Intercept)        7.78               NaN       NaN     NaN
##  2 Avg_GDP            0.0000000537       NaN       NaN     NaN
##  3 Num_Athletes       0.0112             NaN       NaN     NaN
##  4 Avg_Temp          -0.332              NaN       NaN     NaN
##  5 NOCAustria         0.522              NaN       NaN     NaN
##  6 NOCBelarus        -5.66               NaN       NaN     NaN
##  7 NOCCanada         -7.23               NaN       NaN     NaN
##  8 NOCCzech Republic -3.68               NaN       NaN     NaN
##  9 NOCFinland        -5.99               NaN       NaN     NaN
## 10 NOCFrance          0.700              NaN       NaN     NaN
## # … with 16 more rows
```
…
